"Level1","Level2","Level3","Level4","Level5","Level6"
"Africa",,,,,
"Africa","Algeria",,,,
"Africa","Algeria","Algiers Province",,,
"Africa","Algeria","Béjaïa Province",,,
"Africa","Algeria","Chlef Province",,,
"Africa","Algeria","Chlef Province","Dahra",,
"Africa","Algeria","Mascara Province",,,
"Africa","Algeria","Médéa Province",,,
"Africa","Algeria","Tlemcen Province",,,
"Africa","Algeria","Zaccar",,,
"Africa","Cape Verde",,,,
"Africa","Cape Verde","Chã das Caldeiras",,,
"Africa","Morocco",,,,
"Africa","Morocco","Atlas Mountains",,,
"Africa","South Africa",,,,
"Africa","South Africa","Breede River Valley",,,
"Africa","South Africa","Constantia",,,
"Africa","South Africa","Durbanville",,,
"Africa","South Africa","Elgin",,,
"Africa","South Africa","Elim",,,
"Africa","South Africa","Franschhoek",,,
"Africa","South Africa","Little Karoo",,,
"Africa","South Africa","Orange River Valley",,,
"Africa","South Africa","Paarl",,,
"Africa","South Africa","Robertson",,,
"Africa","South Africa","Stellenbosch",,,
"Africa","South Africa","Swartland",,,
"Africa","South Africa","Tulbagh",,,
"Africa","Tunisia",,,,
"Africa","Tunisia","Arianah",,,
"Africa","Tunisia","Nabul",,,
"Africa","Tunisia","Sousse",,,
"Americas",,,,,
"Americas","Argentina",,,,
"Americas","Argentina","Buenos Aires Province",,,
"Americas","Argentina","Buenos Aires Province","Médanos",,
"Americas","Argentina","Catamarca Province",,,
"Americas","Argentina","La Rioja Province",,,
"Americas","Argentina","Mendoza Province",,,
"Americas","Argentina","Neuquén Province",,,
"Americas","Argentina","Río Negro Province",,,
"Americas","Argentina","Salta Province",,,
"Americas","Argentina","San Juan Province",,,
"Americas","Bolivia",,,,
"Americas",,"Tarija Department",,,
"Americas","Brazil",,,,
"Americas",,"Bahia",,,
"Americas",,"Bahia","Curaçá",,
"Americas",,"Bahia","Irecê",,
"Americas",,"Bahia","Juazeiro",,
"Americas",,"Mato Grosso",,,
"Americas",,"Mato Grosso","Nova Mutum",,
"Americas",,"Minas Gerais",,,
"Americas",,"Minas Gerais","Andradas",,
"Americas",,"Minas Gerais","Caldas",,
"Americas",,"Minas Gerais","Pirapora",,
"Americas",,"Minas Gerais","Santa Rita de Caldas",,
"Americas",,"Paraná",,,
"Americas",,"Paraná","Bandeirantes",,
"Americas",,"Paraná","Marialva",,
"Americas",,"Paraná","Maringá",,
"Americas",,"Paraná","Rosário do Avaí",,
"Americas",,"Pernambuco",,,
"Americas",,"Pernambuco","Casa Nova",,
"Americas",,"Pernambuco","Petrolina",,
"Americas",,"Pernambuco","Santa Maria da Boa Vista",,
"Americas",,"Rio Grande do Sul",,,
"Americas",,"Rio Grande do Sul","Bento Gonçalves",,
"Americas",,"Rio Grande do Sul","Caxias do Sul",,
"Americas",,"Rio Grande do Sul","Cotiporã",,
"Americas",,"Rio Grande do Sul","Garibaldi",,
"Americas",,"Santa Catarina",,,
"Americas",,"Santa Catarina","Pinheiro Preto",,
"Americas",,"Santa Catarina","São Joaquim",,
"Americas",,"Santa Catarina","Tangará",,
"Americas",,"São Paulo",,,
"Americas",,"São Paulo","Jundiaí",,
"Americas",,"São Paulo","São Roque",,
"Americas","Canada",,,,
"Americas","Canada","British Columbia",,,
"Americas","Canada","British Columbia","Fraser Valley",,
"Americas","Canada","British Columbia","Gulf Islands",,
"Americas","Canada","British Columbia","Okanagan Valley",,
"Americas","Canada","British Columbia","Similkameen Valley",,
"Americas","Canada","British Columbia","Vancouver Island",,
"Americas","Canada","Nova Scotia",,,
"Americas","Canada","Nova Scotia","Annapolis Valley",,
"Americas","Canada","Ontario",,,
"Americas","Canada","Ontario","Lake Erie North Shore and Pelee Island",,
"Americas","Canada","Ontario","Niagara Peninsula",,
"Americas","Canada","Ontario","Prince Edward County",,
"Americas","Canada","Ontario","Toronto",,
"Americas","Canada","Quebec",,,
"Americas","Canada","Quebec","Eastern Townships",,
"Americas","Chile",,,,
"Americas","Chile","Aconcagua",,,
"Americas","Chile","Aconcagua","Aconcagua Valley",,
"Americas","Chile","Aconcagua","Casablanca Valley",,
"Americas","Chile","Atacama",,,
"Americas","Chile","Atacama","Copiapó Valley",,
"Americas","Chile","Atacama","Huasco Valley",,
"Americas","Chile","Central Valley",,,
"Americas","Chile","Central Valley","Cachapoal Valley",,
"Americas","Chile","Central Valley","Maipo Valley",,
"Americas","Chile","Central Valley","Mataquito Valley",,
"Americas","Chile","Central Valley","Maule Valley",,
"Americas","Chile","Coquimbo",,,
"Americas","Chile","Coquimbo","Choapa Valley",,
"Americas","Chile","Coquimbo","Elqui Valley",,
"Americas","Chile","Coquimbo","Limarí",,
"Americas","Chile","Pica",,,
"Americas","Chile","Southern Chile",,,
"Americas","Chile","Southern Chile","Bío-Bío Valley",,
"Americas","Chile","Southern Chile","Itata Valley",,
"Americas","Chile","Southern Chile","Malleco Valley",,
"Americas","Mexico",,,,
"Americas","Mexico","Aguascalientes (state)",,,
"Americas","Mexico","Aguascalientes (state)","Aguascalientes Valley",,
"Americas","Mexico","Baja California",,,
"Americas","Mexico","Baja California","Valle de Guadalupe",,
"Americas","Mexico","Baja California","Valle de Guadalupe","Valle de Calafia",
"Americas","Mexico","Baja California","Valle de Guadalupe","Valle de Mexicali",
"Americas","Mexico","Baja California","Valle de Guadalupe","Valle de San Vicente",
"Americas","Mexico","Baja California","Valle de Guadalupe","Valle de Santo Tomás",
"Americas","Mexico","Baja California","Valle de Guadalupe","Zona Tecate",
"Americas","Mexico","La Laguna wine region",,,
"Americas","Mexico","La Laguna wine region","Valle de Parras",,
"Americas","Mexico","Guanajuato",,,
"Americas","Mexico","Guanajuato","San Miguel de Allende, Dolores Hidalgo",,
"Americas","Mexico","Hidalgo (state)",,,
"Americas","Mexico","Nuevo León",,,
"Americas","Mexico","Nuevo León","Valle de Las Maravillas",,
"Americas","Mexico","Querétaro",,,
"Americas","Mexico","Querétaro","Valle de Tequisquiapan",,
"Americas","Mexico","Sonora",,,
"Americas","Mexico","Sonora","Caborca",,
"Americas","Mexico","Sonora","Hermosillo",,
"Americas","Mexico","Zacatecas",,,
"Americas","Mexico","Zacatecas","Valle de las Arcinas",,
"Americas","Peru",,,,
"Americas","Peru","Arequipa region",,,
"Americas","Peru","Lima",,,
"Americas","Peru","Lima","Huaral District",,
"Americas","Peru","Lima","Cañete Province",,
"Americas","Peru","Ica Region",,,
"Americas","Peru","Ica Region","Chincha Valley",,
"Americas","Peru","Ica Region","Pisco  Valley",,
"Americas","Peru","Ica Region","Ica Valley",,
"Americas","Peru","Pica",,,
"Americas","United States",,,,
"Americas","United States","Arizona",,,
"Americas","United States","Arkansas",,,
"Americas","United States","Arkansas","Altus",,
"Americas","United States","California",,,
"Americas","United States","California","Amador County",,
"Americas","United States","California","Monterey",,
"Americas","United States","California","El Dorado County, California",,
"Americas","United States","California","Lake County, California",,
"Americas","United States","California","Livermore Valley",,
"Americas","United States","California","Anderson Valley",,
"Americas","United States","California","Napa Valley",,
"Americas","United States","California","Ramona Valley",,
"Americas","United States","California","San Joaquin County",,
"Americas","United States","California","San Luis Obispo County",,
"Americas","United States","California","Santa Clara Valley",,
"Americas","United States","California","Santa Cruz Mountains",,
"Americas","United States","California","Santa Ynez Valley",,
"Americas","United States","California","Sonoma Valley",,
"Americas","United States","California","Temecula Valley",,
"Americas","United States","Colorado",,,
"Americas","United States","Colorado","Palisade/ Grand Valley",,
"Americas","United States","Florida",,,
"Americas","United States","Georgia",,,
"Americas","United States","Illinois",,,
"Americas","United States","Maine",,,
"Americas","United States","Michigan",,,
"Americas","United States","Michigan","Lake Michigan Shore",,
"Americas","United States","Michigan","Leelanau Peninsula",,
"Americas","United States","Michigan","Old Mission Peninsula",,
"Americas","United States","Minnesota",,,
"Americas","United States","Minnesota","Alexandria Lakes",,
"Americas","United States","Minnesota","Upper Mississippi Valley",,
"Americas","United States","Missouri",,,
"Americas","United States","Missouri","Augusta",,
"Americas","United States","Missouri","Hermann",,
"Americas","United States","Missouri","Ozark Highlands",,
"Americas","United States","Missouri","Ozark Mountains (also in Oklahoma and Arkansas)",,
"Americas","United States","Missouri","Ste. Genevieve",,
"Americas","United States","New Jersey",,,
"Americas","United States","New Mexico",,,
"Americas","United States","New Mexico","Albuquerque",,
"Americas","United States","New Mexico","Deming",,
"Americas","United States","New Mexico","La Union",,
"Americas","United States","New Mexico","Las Cruces",,
"Americas","United States","New Mexico","Santa Fe",,
"Americas","United States","New Mexico","Taos",,
"Americas","United States","New York",,,
"Americas","United States","New York","Long Island",,
"Americas","United States","New York","Finger Lakes",,
"Americas","United States","New York","Hudson River Valley",,
"Americas","United States","New York","Lake Erie Region",,
"Americas","United States","New York","Niagara Escarpment",,
"Americas","United States","North Carolina",,,
"Americas","United States","North Carolina","Yadkin Valley",,
"Americas","United States","Ohio",,,
"Americas","United States","Ohio","Grand River Valley",,
"Americas","United States","Ohio","Isle St. George",,
"Americas","United States","Ohio","Kanawha River Valley",,
"Americas","United States","Ohio","Loramie Creek",,
"Americas","United States","Ohio","Ohio River Valley",,
"Americas","United States","Oklahoma",,,
"Americas","United States","Oregon",,,
"Americas","United States","Oregon","Applegate Valley",,
"Americas","United States","Oregon","Columbia Valley",,
"Americas","United States","Oregon","Hood River County",,
"Americas","United States","Oregon","Rogue Valley",,
"Americas","United States","Oregon","Umpqua Valley",,
"Americas","United States","Oregon","Willamette Valley",,
"Americas","United States","Oregon","Walla Walla Valley",,
"Americas","United States","Pennsylvania",,,
"Americas","United States","Pennsylvania","Central Delaware Valley",,
"Americas","United States","Pennsylvania","Cumberland Valley",,
"Americas","United States","Pennsylvania","Erie County",,
"Americas","United States","Pennsylvania","Lancaster County",,
"Americas","United States","Pennsylvania","Lehigh County",,
"Americas","United States","Texas",,,
"Americas","United States","Texas","Bell Mountain",,
"Americas","United States","Texas","Davis Mountains",,
"Americas","United States","Texas","Escondido Valley",,
"Americas","United States","Texas","Fredericksburg",,
"Americas","United States","Texas","Llano Estacado",,
"Americas","United States","Texas","Texas Hill Country",,
"Americas","United States","Virginia",,,
"Americas","United States","Virginia","Monticello",,
"Americas","United States","Virginia","North Fork of Roanoke",,
"Americas","United States","Virginia","Northern Neck George Washington Birthplace",,
"Americas","United States","Virginia","Rocky Knob",,
"Americas","United States","Virginia","Shenandoah Valley",,
"Americas","United States","Virginia","Virginia's Eastern Shore",,
"Americas","United States","Washington",,,
"Americas","United States","Washington","Columbia Gorge",,
"Americas","United States","Washington","Columbia Valley",,
"Americas","United States","Washington","Columbia Valley","Horse Heaven Hills",
"Americas","United States","Washington","Columbia Valley","Naches Heights",
"Americas","United States","Washington","Columbia Valley","Rattlesnake Hills",
"Americas","United States","Washington","Columbia Valley","Red Mountain",
"Americas","United States","Washington","Columbia Valley","Wahluke Slope",
"Americas","United States","Washington","Columbia Valley","Walla Walla Valley",
"Americas","United States","Washington","Columbia Valley","Yakima Valley",
"Americas","United States","Washington","Puget Sound",,
"Americas","United States","Wisconsin",,,
"Americas","United States","Wisconsin","Niagara Escarpment",,
"Americas","Uruguay",,,,
"Americas","Venezuela",,,,
"Americas","Venezuela","Carora, Lara State",,,
"Europe",,,,,
"Europe","Albania",,,,
"Europe","Albania","Berat",,,
"Europe","Albania","Korça",,,
"Europe","Albania","Leskovik",,,
"Europe","Albania","Lezhë",,,
"Europe","Albania","Përmet",,,
"Europe","Albania","Shkoder",,,
"Europe","Albania","Tirana County",,,
"Europe","Armenia",,,,
"Europe","Armenia","Ararat Valley",,,
"Europe","Armenia","Vayots Dzor Province",,,
"Europe","Armenia","Vayots Dzor Province","Areni",,
"Europe","Armenia","Tavush Province",,,
"Europe","Armenia","Tavush Province","Ijevan",,
"Europe","Austria",,,,
"Europe","Austria","Burgenland",,,
"Europe","Austria","Northeastern and eastern Lower Austria",,,
"Europe","Austria","Northeastern and eastern Lower Austria","Kamptal",,
"Europe","Austria","Northeastern and eastern Lower Austria","Kremstal",,
"Europe","Austria","Northeastern and eastern Lower Austria","Wachau",,
"Europe","Austria","Northeastern and eastern Lower Austria","Wagram",,
"Europe","Austria","Northeastern and eastern Lower Austria","Weinviertel",,
"Europe","Austria","Southern Styria",,,
"Europe","Austria","Vienna",,,
"Europe","Azerbaijan",,,,
"Europe","Azerbaijan","Baku, capital",,,
"Europe","Azerbaijan","Ganja",,,
"Europe","Azerbaijan","Madrasa",,,
"Europe","Azerbaijan","Tovuz",,,
"Europe","Azerbaijan","Shamkir",,,
"Europe","Belgium",,,,
"Europe","Belgium","Côtes de Sambre et Meuse",,,
"Europe","Belgium","Hagelandse wijn",,,
"Europe","Belgium","Haspengouw",,,
"Europe","Belgium","Heuvelland",,,
"Europe","Bosnia and Herzegovina",,,,
"Europe","Bosnia and Herzegovina","Čapljina",,,
"Europe","Bosnia and Herzegovina","Čitluk",,,
"Europe","Bosnia and Herzegovina","Ljubuški",,,
"Europe","Bosnia and Herzegovina","Međugorje",,,
"Europe","Bosnia and Herzegovina","Mostar",,,
"Europe","Bosnia and Herzegovina","Stolac",,,
"Europe","Bosnia and Herzegovina","Trebinje",,,
"Europe","Bulgaria",,,,
"Europe","Bulgaria","Black Sea region",,,
"Europe","Bulgaria","Danubian Plain",,,
"Europe","Bulgaria","Rose Valley",,,
"Europe","Bulgaria","Thrace",,,
"Europe","Bulgaria","Valley of the Struma River",,,
"Europe","Croatia",,,,
"Europe","Croatia","Continental Croatia: Central Croatia and Slavonia",,,
"Europe","Croatia","Continental Croatia: Central Croatia and Slavonia","Moslavina",,
"Europe","Croatia","Continental Croatia: Central Croatia and Slavonia","Plešivica",,
"Europe","Croatia","Continental Croatia: Central Croatia and Slavonia","Podunavlje",,
"Europe","Croatia","Continental Croatia: Central Croatia and Slavonia","Pokuplje",,
"Europe","Croatia","Continental Croatia: Central Croatia and Slavonia","Prigorje - Bilogora",,
"Europe","Croatia","Continental Croatia: Central Croatia and Slavonia","Slavonia",,
"Europe","Croatia","Continental Croatia: Central Croatia and Slavonia","Zagorje - Međimurje",,
"Europe","Croatia","Littoral Croatia: Northern Croatian Littoral and Dalmatia",,,
"Europe","Croatia","Littoral Croatia: Northern Croatian Littoral and Dalmatia","Croatian Coast (Hrvatsko primorje)",,
"Europe","Croatia","Littoral Croatia: Northern Croatian Littoral and Dalmatia","Dalmatian Interior (Dalmatinska zagora)",,
"Europe","Croatia","Littoral Croatia: Northern Croatian Littoral and Dalmatia","Central and South Dalmatia (Srednja i Južna Dalmacija)",,
"Europe","Croatia","Littoral Croatia: Northern Croatian Littoral and Dalmatia","Northern Dalmatia (Sjeverna Dalmacija)",,
"Europe","Croatia","Littoral Croatia: Northern Croatian Littoral and Dalmatia","Istria (Istra)",,
"Europe","Cyprus",,,,
"Europe","Cyprus","Commandaria",,,
"Europe","Cyprus","Laona - Akamas",,,
"Europe","Cyprus","Vouni Panagias – Ambelitis",,,
"Europe","Cyprus","Krasochoria Lemesou",,,
"Europe","Cyprus","Pitsilia",,,
"Europe","Cyprus","Diarizos Valley",,,
"Europe","Czech Republic",,,,
"Europe","Czech Republic","Moravia",,,
"Europe","Czech Republic","Moravia","Mikulov - Mikulovska wine",,
"Europe","Czech Republic","Moravia","Slovácko",,
"Europe","Czech Republic","Moravia","Velké Pavlovice",,
"Europe","Czech Republic","Moravia","Znojmo",,
"Europe","Czech Republic","Bohemia",,,
"Europe","Czech Republic","Bohemia","Litoměřice",,
"Europe","Czech Republic","Bohemia","Mělník",,
"Europe","Czech Republic","Prague",,,
"Europe","Czech Republic","Prague","Gazebo at Gröbe’s Villa",,
"Europe","Czech Republic","Prague","St. Clare’s",,
"Europe","Czech Republic","Prague","St. Wenceslas’ Vineyard at Prague castle",,
"Europe","Czech Republic","Prague","Salabka, Troja",,
"Europe","Denmark",,,,
"Europe","France",,,,
"Europe","France","Alsace",,,
"Europe","France","Bordeaux",,,
"Europe","France",,"Barsac",,
"Europe","France",,"Entre-Deux-Mers",,
"Europe","France",,"Fronsac",,
"Europe","France",,"Graves",,
"Europe","France",,"Haut-Médoc",,
"Europe","France",,"Margaux",,
"Europe","France",,"Médoc",,
"Europe","France",,"Pauillac",,
"Europe","France",,"Pessac-Léognan",,
"Europe","France",,"Pomerol",,
"Europe","France",,"Saint-Émilion",,
"Europe","France",,"Saint-Estèphe",,
"Europe","France",,"Saint-Julien",,
"Europe","France",,"Sauternes",,
"Europe","France","Burgundy",,,
"Europe","France","Burgundy","Beaujolais",,
"Europe","France","Burgundy","Bugey",,
"Europe","France","Burgundy","Chablis",,
"Europe","France","Burgundy","Côte Chalonnaise",,
"Europe","France","Burgundy","Côte d'Or",,
"Europe","France","Burgundy","Côte d'Or","Côte de Beaune",
"Europe","France","Burgundy","Côte d'Or","Côte de Beaune","Aloxe-Corton"
"Europe","France","Burgundy","Côte d'Or","Côte de Beaune","Auxey-Duresses"
"Europe","France","Burgundy","Côte d'Or","Côte de Beaune","Beaune"
"Europe","France","Burgundy","Côte d'Or","Côte de Beaune","Chassagne-Montrachet"
"Europe","France","Burgundy","Côte d'Or","Côte de Beaune","Meursault"
"Europe","France","Burgundy","Côte d'Or","Côte de Beaune","Santenay"
"Europe","France","Burgundy","Côte d'Or","Côte de Nuits",
"Europe","France","Burgundy","Côte d'Or","Côte de Nuits","Chambolle-Musigny"
"Europe","France","Burgundy","Côte d'Or","Côte de Nuits","Gevrey-Chambertin"
"Europe","France","Burgundy","Côte d'Or","Côte de Nuits","Nuits-Saint-Georges"
"Europe","France","Burgundy","Côte d'Or","Côte de Nuits","Vosne-Romanée"
"Europe","France","Burgundy","Mâconnais",,
"Europe","France","Burgundy","Mâconnais","Pouilly-Fuissé",
"Europe","France","Champagne",,,
"Europe","France","Jura",,,
"Europe","France","Languedoc-Roussillon",,,
"Europe","France","Languedoc-Roussillon","Banyuls",,
"Europe","France","Languedoc-Roussillon","Blanquette de Limoux",,
"Europe","France","Languedoc-Roussillon","Cabardes",,
"Europe","France","Languedoc-Roussillon","Collioure",,
"Europe","France","Languedoc-Roussillon","Corbières",,
"Europe","France","Languedoc-Roussillon","Côtes du Roussillon",,
"Europe","France","Languedoc-Roussillon","Fitou",,
"Europe","France","Languedoc-Roussillon","Maury",,
"Europe","France","Languedoc-Roussillon","Minervois",,
"Europe","France","Languedoc-Roussillon","Rivesaltes",,
"Europe","France","Loire Valley",,,
"Europe","France","Loire Valley","Saumur",,
"Europe","France","Loire Valley","Cognac",,
"Europe","France","Loire Valley","Muscadet",,
"Europe","France","Loire Valley","Pouilly Fumé",,
"Europe","France","Loire Valley","Sancerre",,
"Europe","France","Loire Valley","Touraine",,
"Europe","France","Lorraine",,,
"Europe","France","Madiran",,,
"Europe","France","Provence",,,
"Europe","France","Rhône",,,
"Europe","France","Rhône","Beaumes-de-Venise",,
"Europe","France","Rhône","Château-Grillet",,
"Europe","France","Rhône","Châteauneuf-du-Pape",,
"Europe","France","Rhône","Condrieu",,
"Europe","France","Rhône","Cornas",,
"Europe","France","Rhône","Côte du Rhône-Villages",,
"Europe","France","Rhône","Côte-Rôtie",,
"Europe","France","Rhône","Côtes du Rhône",,
"Europe","France","Rhône","Crozes-Hermitage",,
"Europe","France","Rhône","Gigondas",,
"Europe","France","Rhône","Hermitage",,
"Europe","France","Rhône","St. Joseph",,
"Europe","France","Rhône","Saint-Péray",,
"Europe","France","Rhône","Vacqueyras",,
"Europe","France","Savoie",,,
"Europe","Georgia",,,,
"Europe","Georgia","Abkhazia",,,
"Europe","Georgia","Kakheti",,,
"Europe","Georgia","Kakheti","Telavi",,
"Europe","Georgia","Kakheti","Kvareli",,
"Europe","Georgia","Kartli",,,
"Europe","Georgia","Imereti",,,
"Europe","Georgia","Racha-Lechkhumi",,,
"Europe","Georgia","Kvemo Svaneti",,,
"Europe","Germany",,,,
"Europe","Germany","Ahr",,,
"Europe","Germany","Baden",,,
"Europe","Germany","Franconia",,,
"Europe","Germany","Hessische Bergstraße",,,
"Europe","Germany","Mittelrhein",,,
"Europe","Germany","Mosel",,,
"Europe","Germany","Nahe",,,
"Europe","Germany","Palatinate",,,
"Europe","Germany","Rheingau",,,
"Europe","Germany","Rheinhessen",,,
"Europe","Germany","Saale-Unstrut",,,
"Europe","Germany","Saxony",,,
"Europe","Germany","Württemberg",,,
"Europe","Greece",,,,
"Europe","Greece","Aegean islands",,,
"Europe","Greece","Aegean islands","Crete",,
"Europe","Greece","Aegean islands","Limnos",,
"Europe","Greece","Aegean islands","Paros",,
"Europe","Greece","Aegean islands","Rhodes",,
"Europe","Greece","Aegean islands","Samos",,
"Europe","Greece","Aegean islands","Santorini",,
"Europe","Greece","Central Greece",,,
"Europe","Greece","Central Greece","Attica",,
"Europe","Greece","Central Greece","Epirus",,
"Europe","Greece","Central Greece","Epirus","Zitsa",
"Europe","Greece","Central Greece","Thessaly",,
"Europe","Greece","Central Greece","Thessaly","Nea Anchialos",
"Europe","Greece","Central Greece","Thessaly","Rapsani",
"Europe","Greece","Ionian Islands",,,
"Europe","Greece","Ionian Islands","Kefalonia",,
"Europe","Greece","Macedonia",,,
"Europe","Greece","Macedonia","Amyntaion",,
"Europe","Greece","Macedonia","Goumenissa",,
"Europe","Greece","Macedonia","Naousa, Imathia",,
"Europe","Greece","Peloponnesus",,,
"Europe","Greece","Peloponnesus","Mantineia",,
"Europe","Greece","Peloponnesus","Nemea",,
"Europe","Greece","Peloponnesus","Patras",,
"Europe","Hungary",,,,
"Europe","Hungary","Balaton",,,
"Europe","Hungary","Balaton","Badacsony",,
"Europe","Hungary","Balaton","Balaton-felvidék",,
"Europe","Hungary","Balaton","Balatonboglár",,
"Europe","Hungary","Balaton","Balatonfüred-Csopak",,
"Europe","Hungary","Balaton","Nagy-Somló",,
"Europe","Hungary","Balaton","Zala",,
"Europe","Hungary","Duna",,,
"Europe","Hungary","Duna","Csongrád",,
"Europe","Hungary","Duna","Hajós-Baja",,
"Europe","Hungary","Duna","Kunság",,
"Europe","Hungary","Eger",,,
"Europe","Hungary","Eger","Bükk",,
"Europe","Hungary","Eger","Eger",,
"Europe","Hungary","Eger","Észak-Dunántúl",,
"Europe","Hungary","Eger","Etyek-Buda",,
"Europe","Hungary","Eger","Mátra",,
"Europe","Hungary","Eger","Mór",,
"Europe","Hungary","Eger","Neszmély",,
"Europe","Hungary","Eger","Pannonhalma",,
"Europe","Hungary","Pannon",,,
"Europe","Hungary","Pannon","Pécs",,
"Europe","Hungary","Pannon","Szekszárd",,
"Europe","Hungary","Pannon","Tolna",,
"Europe","Hungary","Pannon","Villány",,
"Europe","Hungary","Sopron",,,
"Europe","Hungary","Tokaj",,,
"Europe","Ireland",,,,
"Europe","Ireland","Cork",,,
"Europe","Italy",,,,
"Europe","Italy","Apulia",,,
"Europe","Italy","Apulia","Bianco di Locorotondo e Martina Franca",,
"Europe","Italy","Apulia","Primitivo di Manduria",,
"Europe","Italy","Calabria",,,
"Europe","Italy","Calabria","Bivongi",,
"Europe","Italy","Calabria","Cirò",,
"Europe","Italy","Calabria","Gaglioppo",,
"Europe","Italy","Calabria","Greco di Bianco",,
"Europe","Italy","Calabria","Lamezia",,
"Europe","Italy","Calabria","Melissa",,
"Europe","Italy","Calabria","Sant'Anna di Isola Capo Rizzuto",,
"Europe","Italy","Calabria","Savuto",,
"Europe","Italy","Calabria","Scavigna",,
"Europe","Italy","Calabria","Terre di Cosenza",,
"Europe","Italy","Emilia-Romagna",,,
"Europe","Italy","Emilia-Romagna","Colli Cesenate",,
"Europe","Italy","Emilia-Romagna","Sangiovese Superiore di Romagna",,
"Europe","Italy","Emilia-Romagna","Trebbiano di Romagna",,
"Europe","Italy","Liguria",,,
"Europe","Italy","Liguria","Cinque Terre",,
"Europe","Italy","Lombardy",,,
"Europe","Italy","Lombardy","Franciacorta",,
"Europe","Italy","Lombardy","Oltrepo Pavese",,
"Europe","Italy","Marche",,,
"Europe","Italy","Marche","Castelli di Jesi",,
"Europe","Italy","Marche","Conero",,
"Europe","Italy","Marche","Piceno",,
"Europe","Italy","Piedmont",,,
"Europe","Italy","Piedmont","Acqui",,
"Europe","Italy","Piedmont","Alba",,
"Europe","Italy","Piedmont","Asti",,
"Europe","Italy","Piedmont","Barolo",,
"Europe","Italy","Piedmont","Colli Tortonesi",,
"Europe","Italy","Piedmont","Gattinara",,
"Europe","Italy","Piedmont","Gavi",,
"Europe","Italy","Piedmont","Ghemme",,
"Europe","Italy","Piedmont","Langhe",,
"Europe","Italy","Piedmont","Monferrato",,
"Europe","Italy","Piedmont","Nizza",,
"Europe","Italy","Piedmont","Ovada",,
"Europe","Italy","Sardinia",,,
"Europe","Italy","Sardinia","Cagliari",,
"Europe","Italy","Sardinia","Cannonau",,
"Europe","Italy","Sardinia","Monti",,
"Europe","Italy","Sardinia","Nuragus",,
"Europe","Italy","Sardinia","Ogliastra",,
"Europe","Italy","Sardinia","Vermentino di Gallura",,
"Europe","Italy","Sicily",,,
"Europe","Italy","Sicily","Etna",,
"Europe","Italy","Sicily","Noto",,
"Europe","Italy","Sicily","Pantelleria",,
"Europe","Italy","Trentino-Alto Adige",,,
"Europe","Italy","Trentino-Alto Adige","South Tyrol",,
"Europe","Italy","Tuscany",,,
"Europe","Italy","Tuscany","Bolgheri",,
"Europe","Italy","Tuscany","Chianti",,
"Europe","Italy","Tuscany","Chianti Classico",,
"Europe","Italy","Tuscany","Colli Apuani",,
"Europe","Italy","Tuscany","Colli Etruria Centrale",,
"Europe","Italy","Tuscany","Colline Lucchesi",,
"Europe","Italy","Tuscany","Elba",,
"Europe","Italy","Tuscany","Montalcino",,
"Europe","Italy","Tuscany","Montescudaio",,
"Europe","Italy","Tuscany","Parrina",,
"Europe","Italy","Tuscany","Pitigliano",,
"Europe","Italy","Tuscany","San Gimignano",,
"Europe","Italy","Tuscany","Scansano",,
"Europe","Italy","Tuscany","Val di Chiana",,
"Europe","Italy","Tuscany","Val di Cornia",,
"Europe","Italy","Tuscany","Valdinievole",,
"Europe","Italy","Tuscany","Valle di Arbia",,
"Europe","Italy","Umbria",,,
"Europe","Italy","Umbria","Montefalco",,
"Europe","Italy","Umbria","Orvieto",,
"Europe","Italy","Umbria","Torgiano",,
"Europe","Italy","Veneto",,,
"Europe","Italy","Veneto","Arcole",,
"Europe","Italy","Veneto","Bagnoli",,
"Europe","Italy","Veneto","Bardolino",,
"Europe","Italy","Veneto","Bianco di Custoza",,
"Europe","Italy","Veneto","Breganze",,
"Europe","Italy","Veneto","Colli Berici",,
"Europe","Italy","Veneto","Colli di Conegliano",,
"Europe","Italy","Veneto","Colli Euganei",,
"Europe","Italy","Veneto","Gambellara",,
"Europe","Italy","Veneto","Garda",,
"Europe","Italy","Veneto","Lessini Durello",,
"Europe","Italy","Veneto","Lison Pramaggiore",,
"Europe","Italy","Veneto","Lugana",,
"Europe","Italy","Veneto","Montgello e Colli Asolani",,
"Europe","Italy","Veneto","Piave",,
"Europe","Italy","Veneto","Prosecco di Conegliano - Valdobbiadene",,
"Europe","Italy","Veneto","Soave",,
"Europe","Italy","Veneto","Valdadige",,
"Europe","Italy","Veneto","Valpolicella",,
"Europe","Latvia",,,,
"Europe","Latvia","Sabile",,,
"Europe","Luxembourg",,,,
"Europe","Luxembourg","Moselle Valley",,,
"Europe","Macedonia",,,,
"Europe","Macedonia","Povardarie",,,
"Europe","Macedonia","Skopsko vinogorje",,,
"Europe","Macedonia","Tikveš",,,
"Europe","Moldova",,,,
"Europe","Moldova","Bardar",,,
"Europe","Moldova","Codri",,,
"Europe","Moldova","Cricova",,,
"Europe","Moldova","Hînceşti",,,
"Europe","Moldova","Purcari",,,
"Europe","Montenegro",,,,
"Europe","Montenegro","Crmnica",,,
"Europe","Montenegro","Plantaže",,,
"Europe","Netherlands",,,,
"Europe","Netherlands","Groesbeek",,,
"Europe","Poland",,,,
"Europe","Poland","Dolny Śląsk",,,
"Europe","Poland","Kazimierz Dolny",,,
"Europe","Poland","Małopolska",,,
"Europe","Poland","Podkarpackie Voivodeship",,,
"Europe","Poland","Warka",,,
"Europe","Poland","Zielona Góra",,,
"Europe","Portugal",,,,
"Europe","Portugal","Alentejo",,,
"Europe","Portugal","Bairrada",,,
"Europe","Portugal","Bucelas",,,
"Europe","Portugal","Carcavelos",,,
"Europe","Portugal","Colares",,,
"Europe","Portugal","Dão",,,
"Europe","Portugal","Lagoa",,,
"Europe","Portugal","Lagos",,,
"Europe","Portugal","Madeira",,,
"Europe","Portugal","Portimão",,,
"Europe","Portugal","Porto e Douro",,,
"Europe","Portugal","Setúbal",,,
"Europe","Portugal","Tavira",,,
"Europe","Portugal","Vinhos Verdes",,,
"Europe","Romania",,,,
"Europe","Romania","Banat",,,
"Europe","Romania","Banat","Arad",,
"Europe","Romania","Banat","Jamu Mare",,
"Europe","Romania","Banat","Măderat",,
"Europe","Romania","Banat","Miniş",,
"Europe","Romania","Banat","Moldova Nouă",,
"Europe","Romania","Banat","Recaş",,
"Europe","Romania","Banat","Silagiu",,
"Europe","Romania","Banat","Teremia",,
"Europe","Romania","Banat","Tirol",,
"Europe","Romania","Crişana",,,
"Europe","Romania","Crişana","Diosig",,
"Europe","Romania","Crişana","Săcuieni",,
"Europe","Romania","Crişana","Sâniob",,
"Europe","Romania","Crişana","Sanislău",,
"Europe","Romania","Crişana","Valea lui Mihai",,
"Europe","Romania","Dobrogea",,,
"Europe","Romania","Dobrogea","Adamclisi",,
"Europe","Romania","Dobrogea","Babadag",,
"Europe","Romania","Dobrogea","Aliman",,
"Europe","Romania","Dobrogea","Băneasa",,
"Europe","Romania","Dobrogea","Cernavodă",,
"Europe","Romania","Dobrogea","Chirnogeni",,
"Europe","Romania","Dobrogea","Dăeni",,
"Europe","Romania","Dobrogea","Hârşova",,
"Europe","Romania","Dobrogea","Istria",,
"Europe","Romania","Dobrogea","Măcin",,
"Europe","Romania","Dobrogea","Medgidia",,
"Europe","Romania","Dobrogea","Murfatlar",,
"Europe","Romania","Dobrogea","Oltina",,
"Europe","Romania","Dobrogea","Ostrov, Constanţa",,
"Europe","Romania","Dobrogea","Ostrov, Tulcea",,
"Europe","Romania","Dobrogea","Poarta Albă",,
"Europe","Romania","Dobrogea","Sarica-Niculiţel",,
"Europe","Romania","Dobrogea","Simioc",,
"Europe","Romania","Dobrogea","Tulcea",,
"Europe","Romania","Dobrogea","Valea Dacilor",,
"Europe","Romania","Dobrogea","Valea Nucarilor",,
"Europe","Romania","Dobrogea","Valu lui Traian",,
"Europe","Romania","Moldavia",,,
"Europe","Romania","Moldavia","Bereşti",,
"Europe","Romania","Moldavia","Bohotin",,
"Europe","Romania","Moldavia","Coteşti",,
"Europe","Romania","Moldavia","Colinele Tutovei",,
"Europe","Romania","Moldavia","Comarna",,
"Europe","Romania","Moldavia","Copou",,
"Europe","Romania","Moldavia","Corod",,
"Europe","Romania","Moldavia","Cotnari",,
"Europe","Romania","Moldavia","Covurlui",,
"Europe","Romania","Moldavia","Cucuteni",,
"Europe","Romania","Moldavia","Dealu Morii",,
"Europe","Romania","Moldavia","Dealul Bujorului",,
"Europe","Romania","Moldavia","Hârlău",,
"Europe","Romania","Moldavia","Hlipicani",,
"Europe","Romania","Moldavia","Huşi",,
"Europe","Romania","Moldavia","Iveşti",,
"Europe","Romania","Moldavia","Iaşi",,
"Europe","Romania","Moldavia","Jariştea",,
"Europe","Romania","Moldavia","Nămoloasa",,
"Europe","Romania","Moldavia","Nicoreşti",,
"Europe","Romania","Moldavia","Odobeşti",,
"Europe","Romania","Moldavia","Panciu",,
"Europe","Romania","Moldavia","Păuneşti",,
"Europe","Romania","Moldavia","Probota",,
"Europe","Romania","Moldavia","Tănăsoaia",,
"Europe","Romania","Moldavia","Târgu Frumos",,
"Europe","Romania","Moldavia","Tecuci",,
"Europe","Romania","Moldavia","Ţifeşti",,
"Europe","Romania","Moldavia","Tomeşti",,
"Europe","Romania","Moldavia","Vaslui",,
"Europe","Romania","Moldavia","Zeletin",,
"Europe","Romania","Muntenia",,,
"Europe","Romania","Muntenia","Seciu",,
"Europe","Romania","Muntenia","Breaza",,
"Europe","Romania","Muntenia","Cricov",,
"Europe","Romania","Muntenia","Dealu Mare",,
"Europe","Romania","Muntenia","Dealurile Buzăului",,
"Europe","Romania","Muntenia","Pietroasa",,
"Europe","Romania","Muntenia","Râmnicu Sărat",,
"Europe","Romania","Muntenia","Sercaia",,
"Europe","Romania","Muntenia","Ştefăneşti",,
"Europe","Romania","Muntenia","Tohani",,
"Europe","Romania","Muntenia","Topoloveni",,
"Europe","Romania","Muntenia","Urlaţi - Ceptura",,
"Europe","Romania","Muntenia","Valea Călugărească",,
"Europe","Romania","Muntenia","Valea Mare",,
"Europe","Romania","Muntenia","Zărneşti",,
"Europe","Romania","Muntenia","Zoreşti",,
"Europe","Romania","Oltenia",,,
"Europe","Romania","Oltenia","Banu Mărăcine",,
"Europe","Romania","Oltenia","Calafat",,
"Europe","Romania","Oltenia","Cetate",,
"Europe","Romania","Oltenia","Corcova",,
"Europe","Romania","Oltenia","Dăbuleni",,
"Europe","Romania","Oltenia","Dealul Viilor",,
"Europe","Romania","Oltenia","Dealurile Craiovei",,
"Europe","Romania","Oltenia","Drăgăşani",,
"Europe","Romania","Oltenia","Golul Drincei",,
"Europe","Romania","Oltenia","Greaca",,
"Europe","Romania","Oltenia","Iancu Jianu",,
"Europe","Romania","Oltenia","Izvoarele",,
"Europe","Romania","Oltenia","Oreviţa",,
"Europe","Romania","Oltenia","Plaiurile Drâncei",,
"Europe","Romania","Oltenia","Pleniţa",,
"Europe","Romania","Oltenia","Podgoria Dacilor",,
"Europe","Romania","Oltenia","Podgoria Severinului",,
"Europe","Romania","Oltenia","Poiana Mare",,
"Europe","Romania","Oltenia","Potelu",,
"Europe","Romania","Oltenia","Sadova-Corabia",,
"Europe","Romania","Oltenia","Sâmbureşti",,
"Europe","Romania","Oltenia","Segarcea",,
"Europe","Romania","Oltenia","Tâmbureşti",,
"Europe","Romania","Oltenia","Vânju Mare",,
"Europe","Romania","Oltenia","Zimnicea",,
"Europe","Romania","Transylvania",,,
"Europe","Romania","Transylvania","Aiud",,
"Europe","Romania","Transylvania","Alba Iulia",,
"Europe","Romania","Transylvania","Bistriţa",,
"Europe","Romania","Transylvania","Blaj",,
"Europe","Romania","Transylvania","Ighiu",,
"Europe","Romania","Transylvania","Jidvei",,
"Europe","Romania","Transylvania","Lechinta",,
"Europe","Romania","Transylvania","Mediaş",,
"Europe","Romania","Transylvania","Şamşud",,
"Europe","Romania","Transylvania","Sebeş-Apold",,
"Europe","Romania","Transylvania","Şimleul Silvaniei",,
"Europe","Romania","Transylvania","Târnave",,
"Europe","Romania","Transylvania","Târnăveni",,
"Europe","Romania","Transylvania","Teaca",,
"Europe","Romania","Transylvania","Triteni",,
"Europe","Romania","Transylvania","Valea Nirajului",,
"Europe","Russia",,,,
"Europe","Russia","Caucasus",,,
"Europe","Russia","Krasnodar",,,
"Europe","Russia","Stavropol",,,
"Europe","Serbia",,,,
"Europe","Serbia","Banat region",,,
"Europe","Serbia","Kosovo region",,,
"Europe","Serbia","Nišava - South Morava region",,,
"Europe","Serbia","Pocerina region",,,
"Europe","Serbia","Srem region",,,
"Europe","Serbia","Subotica - Horgoš region",,,
"Europe","Serbia","Šumadija - Great Morava region",,,
"Europe","Serbia","Timočka Krajina",,,
"Europe","Serbia","West Morava region",,,
"Europe","Slovakia",,,,
"Europe","Slovakia","Malokarpatská (Small Carpathians)",,,
"Europe","Slovakia","Južnoslovenská (Southern Slovakia)",,,
"Europe","Slovakia","Nitrianska (region of Nitra)",,,
"Europe","Slovakia","Stredoslovenská (Central Slovakia)",,,
"Europe","Slovakia","Tokaj (Tokaj region of Slovakia)",,,
"Europe","Slovakia","Východoslovenská (Eastern Slovakia)",,,
"Europe","Slovakia","The whole of southern Slovakia",,,
"Europe","Slovenia",,,,
"Europe","Slovenia","Podravje",,,
"Europe","Slovenia","Posavje",,,
"Europe","Slovenia","Primorska",,,
"Europe","Spain",,,,
"Europe","Spain","Andalusia",,,
"Europe","Spain","Andalusia","Condado de Huelva",,
"Europe","Spain","Andalusia","Jerez-Xeres-Sherry",,
"Europe","Spain","Andalusia","Málaga and Sierras de Málaga",,
"Europe","Spain","Andalusia","Manzanilla de Sanlúcar de Barrameda",,
"Europe","Spain","Andalusia","Montilla-Moriles",,
"Europe","Spain","Aragon",,,
"Europe","Spain","Aragon","Calatayud",,
"Europe","Spain","Aragon","Campo de Borja",,
"Europe","Spain","Aragon","Campo de Cariñena",,
"Europe","Spain","Aragon","Cava",,
"Europe","Spain","Aragon","Somontano",,
"Europe","Spain","Balearic Islands",,,
"Europe","Spain","Balearic Islands","Binissalem-Mallorca",,
"Europe","Spain","Balearic Islands","Plà i Llevant (DO)",,
"Europe","Spain","Basque Country",,,
"Europe","Spain","Basque Country","Alavan Txakoli",,
"Europe","Spain","Basque Country","Biscayan Txakoli",,
"Europe","Spain","Basque Country","Cava",,
"Europe","Spain","Basque Country","Getaria Txakoli",,
"Europe","Spain","Basque Country","Rioja (Alavesa)",,
"Europe","Spain","Canary Islands",,,
"Europe","Spain","Canary Islands","Abona",,
"Europe","Spain","Canary Islands","El Hierro (DO)",,
"Europe","Spain","Canary Islands","Gran Canaria (DO)",,
"Europe","Spain","Canary Islands","La Gomera (DO)",,
"Europe","Spain","Canary Islands","La Palma (DO)",,
"Europe","Spain","Canary Islands","Lanzarote (DO)",,
"Europe","Spain","Canary Islands","Tacoronte-Acentejo",,
"Europe","Spain","Canary Islands","Valle de Güímar",,
"Europe","Spain","Canary Islands","Valle de la Orotava",,
"Europe","Spain","Canary Islands","Ycoden-Daute-Isora",,
"Europe","Spain","Castile and León",,,
"Europe","Spain","Castile and León","Arlanza",,
"Europe","Spain","Castile and León","Arribes del Duero",,
"Europe","Spain","Castile and León","Bierzo",,
"Europe","Spain","Castile and León","Cava",,
"Europe","Spain","Castile and León","Cigales",,
"Europe","Spain","Castile and León","Espumosos de Castilla y León",,
"Europe","Spain","Castile and León","Ribera del Duero",,
"Europe","Spain","Castile and León","Rueda",,
"Europe","Spain","Castile and León","Tierra del Vino de Zamora",,
"Europe","Spain","Castile and León","Toro",,
"Europe","Spain","Castile and León","Valles de Benavente",,
"Europe","Spain","Castile and León","Tierra de León",,
"Europe","Spain","Castile and León","Valtiendas",,
"Europe","Spain","Castile and León","Vino de la Tierra Castilla y León",,
"Europe","Spain","Castile–La Mancha",,,
"Europe","Spain","Castile–La Mancha","Almansa",,
"Europe","Spain","Castile–La Mancha","Dominio de Valdepusa",,
"Europe","Spain","Castile–La Mancha","Guijoso",,
"Europe","Spain","Castile–La Mancha","Jumilla",,
"Europe","Spain","Castile–La Mancha","La Mancha",,
"Europe","Spain","Castile–La Mancha","Manchuela",,
"Europe","Spain","Castile–La Mancha","Méntrida",,
"Europe","Spain","Castile–La Mancha","Mondéjar",,
"Europe","Spain","Castile–La Mancha","Ribera del Júcar",,
"Europe","Spain","Castile–La Mancha","Valdepeñas",,
"Europe","Spain","Catalonia",,,
"Europe","Spain","Catalonia","Alella",,
"Europe","Spain","Catalonia","Catalunya",,
"Europe","Spain","Catalonia","Cava",,
"Europe","Spain","Catalonia","Conca de Barberà",,
"Europe","Spain","Catalonia","Costers del Segre",,
"Europe","Spain","Catalonia","Empordà",,
"Europe","Spain","Catalonia","Montsant",,
"Europe","Spain","Catalonia","Penedès",,
"Europe","Spain","Catalonia","Pla de Bages",,
"Europe","Spain","Catalonia","Priorat",,
"Europe","Spain","Catalonia","Tarragona",,
"Europe","Spain","Catalonia","Terra Alta",,
"Europe","Spain","Extremadura",,,
"Europe","Spain","Extremadura","Cava",,
"Europe","Spain","Extremadura","Ribera del Guadiana",,
"Europe","Spain","Galicia",,,
"Europe","Spain","Galicia","Monterrey",,
"Europe","Spain","Galicia","Rías Bajas",,
"Europe","Spain","Galicia","Ribeira Sacra",,
"Europe","Spain","Galicia","Ribeiro",,
"Europe","Spain","Galicia","Valdeorras",,
"Europe","Spain","La Rioja",,,
"Europe","Spain","La Rioja","Cava",,
"Europe","Spain","La Rioja","Rioja (DOCa)",,
"Europe","Spain","Community of Madrid",,,
"Europe","Spain","Community of Madrid","Vinos de Madrid",,
"Europe","Spain","Región de Murcia",,,
"Europe","Spain","Región de Murcia","Bullas",,
"Europe","Spain","Región de Murcia","Jumilla",,
"Europe","Spain","Región de Murcia","Yecla",,
"Europe","Spain","Navarre",,,
"Europe","Spain","Navarre","Cava",,
"Europe","Spain","Navarre","Navarra",,
"Europe","Spain","Navarre","Rioja",,
"Europe","Spain","Valencian Community",,,
"Europe","Spain","Valencian Community","Alicante",,
"Europe","Spain","Valencian Community","Cava",,
"Europe","Spain","Valencian Community","Utiel-Requena",,
"Europe","Spain","Valencian Community","Valencia",,
"Europe","Sweden",,,,
"Europe","Sweden","Gutevin - Gotland",,,
"Europe","Switzerland",,,,
"Europe","Switzerland","Aargau",,,
"Europe","Switzerland","Bern",,,
"Europe","Switzerland","Bern","Shores of Lake Biel",,
"Europe","Switzerland","Bern","Shores of Lake Thun (Spiez / Oberhofen)",,
"Europe","Switzerland","Freiburg",,,
"Europe","Switzerland","Geneva",,,
"Europe","Switzerland","Grisons",,,
"Europe","Switzerland","Neuchâtel",,,
"Europe","Switzerland","St. Gallen",,,
"Europe","Switzerland","Schaffhausen",,,
"Europe","Switzerland","Thurgau",,,
"Europe","Switzerland","Ticino",,,
"Europe","Switzerland","Valais",,,
"Europe","Switzerland","Vaud",,,
"Europe","Switzerland","Vaud","La Côte",,
"Europe","Switzerland","Vaud","Lavaux",,
"Europe","Switzerland","Zürich",,,
"Europe","Turkey",,,,
"Europe","Turkey","Marmara wine region",,,
"Europe","Turkey","Marmara wine region","Kırklareli Province",,
"Europe","Turkey","Marmara wine region","Tekirdağ Province",,
"Europe","Turkey","Marmara wine region","Balıkesir Province",,
"Europe","Turkey","Marmara wine region","Istanbul Province",,
"Europe","Turkey","Aegean wine region",,,
"Europe","Turkey","Aegean wine region","Çanakkale Province",,
"Europe","Turkey","Aegean wine region","Manisa Province",,
"Europe","Turkey","Aegean wine region","Denizli Province",,
"Europe","Turkey","Aegean wine region","İzmir Province",,
"Europe","Turkey","Aegean wine region","Isparta Province",,
"Europe","Turkey","Aegean wine region","Muğla Province",,
"Europe","Turkey","Aegean wine region","Aydın Province",,
"Europe","Turkey","Aegean wine region","Burdur Province",,
"Europe","Turkey","Mediterranean wine region",,,
"Europe","Turkey","Mediterranean wine region","Antalya Province",,
"Europe","Turkey","Mediterranean wine region","Mersin Province",,
"Europe","Turkey","Mid-southern Anatolia wine region",,,
"Europe","Turkey","Mid-southern Anatolia wine region","Nevşehir Province",,
"Europe","Turkey","Mid-southern Anatolia wine region","Konya Province",,
"Europe","Turkey","Mid-northern Anatolia wine region",,,
"Europe","Turkey","Mid-northern Anatolia wine region","Ankara Province",,
"Europe","Turkey","Mid-northern Anatolia wine region","Eskişehir Province",,
"Europe","Turkey","Mid-northern Anatolia wine region","Yozgat Province",,
"Europe","Turkey","Mid-northern Anatolia wine region","Sivas Province",,
"Europe","Turkey","Mid-northern Anatolia wine region","Çankarı Province",,
"Europe","Turkey","Mid-eastern Anatolia wine region",,,
"Europe","Turkey","Mid-eastern Anatolia wine region","Tokat Province",,
"Europe","Turkey","Mid-eastern Anatolia wine region","Elazığ Province",,
"Europe","Turkey","Southeast Anatolia wine region",,,
"Europe","Turkey","Southeast Anatolia wine region","Şanlıurfa Province",,
"Europe","Turkey","Southeast Anatolia wine region","Diyarbakır Province",,
"Europe","Ukraine",,,,
"Europe","Ukraine","Autonomous Republic of Crimea and Sevastopol - 6 macrozones with 12 microzones (69 wine grapes)",,,
"Europe","Ukraine","Kherson Oblast",,,
"Europe","Ukraine","Mykolaiv Oblast",,,
"Europe","Ukraine","Odessa Oblast",,,
"Europe","Ukraine","Zakarpattia Oblast",,,
"Europe","Ukraine","Zaporizhia Oblast",,,
"Europe","United Kingdom",,,,
"Asia","United Kingdom",,,,
"Asia","Burma",,,,
"Asia","Burma","Shan State",,,
"Asia","China",,,,
"Asia","China","Chang'an",,,
"Asia","China","Gaochang",,,
"Asia","China","Luoyang",,,
"Asia","China","Qiuci",,,
"Asia","China","Yantai-Penglai",,,
"Asia","China","Chang'an",,,
"Asia","China","Dalian, Liaoning",,,
"Asia","China","Tonghua, Jilin",,,
"Asia","China","Yantai, Shandong",,,
"Asia","China","Yibin, Sichuan",,,
"Asia","China","Zhangjiakou, Hebei",,,
"Asia","India",,,,
"Asia","India","Bangalore, Karnataka",,,
"Asia","India","Bijapur, Karnataka",,,
"Asia","India","Narayangaon",,,
"Asia","India","Nashik, Maharashtra",,,
"Asia","India","Pune, Maharashtra",,,
"Asia","India","Sangli, Maharashtra",,,
"Asia","Indonesia",,,,
"Asia","Indonesia","Bali",,,
"Asia","Iran",,,,
"Asia","Iran","Malayer",,,
"Asia","Iran","Shiraz",,,
"Asia","Iran","Takestan",,,
"Asia","Iran","Urmia",,,
"Asia","Iran","Qazvin",,,
"Asia","Iran","Quchan",,,
"Asia","Israel",,,,
"Asia","Israel","Bet Shemesh",,,
"Asia","Israel","Galilee",,,
"Asia","Israel","Golan Heights",,,
"Asia","Israel","Jerusalem",,,
"Asia","Israel","Judean Hills",,,
"Asia","Israel","Latrun",,,
"Asia","Israel","Mount Carmel",,,
"Asia","Israel","Rishon LeZion ",,,
"Asia","Japan",,,,
"Asia","Japan","Nagano",,,
"Asia","Japan","Yamanashi",,,
"Asia","Kazakhstan",,,,
"Asia","Republic of Korea",,,,
"Asia","Republic of Korea","Gyeonggi-do",,,
"Asia","Republic of Korea","Gyeonggi-do","Anseong",,
"Asia","Republic of Korea","Gyeongsangbuk-do",,,
"Asia","Republic of Korea","Gyeongsangbuk-do","Gimcheon",,
"Asia","Republic of Korea","Gyeongsangbuk-do","Gyeongsan",,
"Asia","Republic of Korea","Gyeongsangbuk-do","Yeongcheon",,
"Asia","Republic of Korea","Chungcheongbuk-do",,,
"Asia","Republic of Korea","Chungcheongbuk-do","Yeongdong",,
"Asia","Lebanon",,,,
"Asia","Lebanon","Bekaa Valley",,,
"Asia","Lebanon","Bekaa Valley","Anjar",,
"Asia","Lebanon","Bekaa Valley","Chtoura",,
"Asia","Lebanon","Bekaa Valley","Rashaya",,
"Asia","Lebanon","Bekaa Valley","Zahlé",,
"Asia","Lebanon","Mount Lebanon",,,
"Asia","Lebanon","Mount Lebanon","Aley",,
"Asia","Lebanon","Mount Lebanon","Baabda",,
"Asia","Lebanon","Mount Lebanon","Beit Mery",,
"Asia","Lebanon","Mount Lebanon","Bhamdoun",,
"Asia","Lebanon","Mount Lebanon","Brummana",,
"Asia","Lebanon","Mount Lebanon","Byblos",,
"Asia","Lebanon","Mount Lebanon","Chouf",,
"Asia","Lebanon","Mount Lebanon","Keserwan District",,
"Asia","Lebanon","North Governorate",,,
"Asia","Lebanon","North Governorate","Chekka",,
"Asia","Lebanon","North Governorate","Ehden",,
"Asia","Lebanon","North Governorate","Koura",,
"Asia","Lebanon","North Governorate","Qadisha Valley",,
"Asia","Lebanon","North Governorate","Tripoli",,
"Asia","Lebanon","North Governorate","Zgharta",,
"Asia","Lebanon","South Governorate",,,
"Asia","Lebanon","South Governorate","Jezzine",,
"Asia","Lebanon","South Governorate","Marjayoun",,
"Asia","Lebanon","South Governorate","Rmaich",,
"Asia","Palestinian territories",,,,
"Asia","Palestinian territories","Beit Jala",,,
"Asia","Palestinian territories","Hebron",,,
"Asia","Syria",,,,
"Asia","Syria","Homs District",,,
"Asia","Syria","Jabal el Druze",,,
"Asia","Vietnam",,,,
"Asia","Vietnam","Da Lat",,,
"Oceania","Vietnam","Da Lat",,,
"Oceania","Australia",,,,
"Oceania","Australia","New South Wales",,,
"Oceania","Australia","New South Wales","Big Rivers",,
"Oceania","Australia","New South Wales","Big Rivers","Murray Darling",
"Oceania","Australia","New South Wales","Big Rivers","Perricoota",
"Oceania","Australia","New South Wales","Big Rivers","Riverina",
"Oceania","Australia","New South Wales","Big Rivers","Swan Hill",
"Oceania","Australia","New South Wales","Central Ranges",,
"Oceania","Australia","New South Wales","Central Ranges","Cowra",
"Oceania","Australia","New South Wales","Central Ranges","Mudgee",
"Oceania","Australia","New South Wales","Central Ranges","Orange",
"Oceania","Australia","New South Wales","Hunter Region",,
"Oceania","Australia","New South Wales","Hunter Region","Hunter Valley",
"Oceania","Australia","New South Wales","Hunter Region","Hunter Valley","Broke Fordwich"
"Oceania","Australia","New South Wales","Hunter Region","Hunter Valley","Pokolbin"
"Oceania","Australia","New South Wales","Hunter Region","Hunter Valley","Upper Hunter Valley"
"Oceania","Australia","New South Wales","Northern Rivers",,
"Oceania","Australia","New South Wales","Northern Rivers","Hastings River",
"Oceania","Australia","New South Wales","Northern Slopes",,
"Oceania","Australia","New South Wales","Northern Slopes","New England Australia",
"Oceania","Australia","New South Wales","South Coast",,
"Oceania","Australia","New South Wales","South Coast","Shoalhaven Coast",
"Oceania","Australia","New South Wales","South Coast","Southern Highlands",
"Oceania","Australia","New South Wales","Southern New South Wales",,
"Oceania","Australia","New South Wales","Southern New South Wales","Canberra District",
"Oceania","Australia","New South Wales","Southern New South Wales","Gundagai",
"Oceania","Australia","New South Wales","Southern New South Wales","Hilltops",
"Oceania","Australia","New South Wales","Southern New South Wales","Tumbarumba",
"Oceania","Australia","Queensland",,,
"Oceania","Australia","Queensland","Granite Belt",,
"Oceania","Australia","Queensland","South Burnett",,
"Oceania","Australia","South Australia",,,
"Oceania","Australia","South Australia","Barossa Zone",,
"Oceania","Australia","South Australia","Barossa Zone","Barossa Valley",
"Oceania","Australia","South Australia","Barossa Zone","Eden Valley",
"Oceania","Australia","South Australia","Barossa Zone","Eden Valley","High Eden"
"Oceania","Australia","South Australia","Far North",,
"Oceania","Australia","South Australia","Far North","Southern Flinders Ranges",
"Oceania","Australia","South Australia","Fleurieu",,
"Oceania","Australia","South Australia","Fleurieu","Currency Creek",
"Oceania","Australia","South Australia","Fleurieu","Kangaroo Island",
"Oceania","Australia","South Australia","Fleurieu","Langhorne Creek",
"Oceania","Australia","South Australia","Fleurieu","McLaren Vale",
"Oceania","Australia","South Australia","Fleurieu","Southern Fleurieu",
"Oceania","Australia","South Australia","Limestone Coast",,
"Oceania","Australia","South Australia","Limestone Coast","Coonawarra",
"Oceania","Australia","South Australia","Limestone Coast","Mount Benson",
"Oceania","Australia","South Australia","Limestone Coast","Mount Gambier",
"Oceania","Australia","South Australia","Limestone Coast","Padthaway",
"Oceania","Australia","South Australia","Limestone Coast","Robe",
"Oceania","Australia","South Australia","Limestone Coast","Wrattonbully",
"Oceania","Australia","South Australia","Lower Murray",,
"Oceania","Australia","South Australia","Lower Murray","Riverland",
"Oceania","Australia","South Australia","Mount Lofty Ranges",,
"Oceania","Australia","South Australia","Mount Lofty Ranges","Adelaide Hills",
"Oceania","Australia","South Australia","Mount Lofty Ranges","Adelaide Hills","Lenswood"
"Oceania","Australia","South Australia","Mount Lofty Ranges","Adelaide Hills","Piccadilly Valley"
"Oceania","Australia","South Australia","Mount Lofty Ranges","Adelaide Plains",
"Oceania","Australia","South Australia","Mount Lofty Ranges","Clare Valley",
"Oceania","Australia","South Australia","The Peninsulas",,
"Oceania","Australia","Tasmania",,,
"Oceania","Australia","Tasmania","Coal River",,
"Oceania","Australia","Tasmania","Derwent Valley",,
"Oceania","Australia","Tasmania","East Coast",,
"Oceania","Australia","Tasmania","North West",,
"Oceania","Australia","Tasmania","Pipers River",,
"Oceania","Australia","Tasmania","Southern",,
"Oceania","Australia","Tasmania","Tamar Valley",,
"Oceania","Australia","Victoria",,,
"Oceania","Australia","Victoria","Central Victoria",,
"Oceania","Australia","Victoria","Central Victoria","Bendigo",
"Oceania","Australia","Victoria","Central Victoria","Goulburn Valley",
"Oceania","Australia","Victoria","Central Victoria","Goulburn Valley","Nagambie Lakes"
"Oceania","Australia","Victoria","Central Victoria","Heathcote",
"Oceania","Australia","Victoria","Central Victoria","Strathbogie Ranges",
"Oceania","Australia","Victoria","Central Victoria","Upper Goulburn",
"Oceania","Australia","Victoria","Gippsland",,
"Oceania","Australia","Victoria","North East Victoria",,
"Oceania","Australia","Victoria","North East Victoria","Alpine Valleys",
"Oceania","Australia","Victoria","North East Victoria","Beechworth",
"Oceania","Australia","Victoria","North East Victoria","Glenrowan",
"Oceania","Australia","Victoria","North East Victoria","King Valley",
"Oceania","Australia","Victoria","North East Victoria","Rutherglen",
"Oceania","Australia","Victoria","North West Victoria",,
"Oceania","Australia","Victoria","North West Victoria","Murray Darling",
"Oceania","Australia","Victoria","North West Victoria","Swan Hill",
"Oceania","Australia","Victoria","Port Phillip",,
"Oceania","Australia","Victoria","Port Phillip","Geelong",
"Oceania","Australia","Victoria","Port Phillip","Macedon Ranges",
"Oceania","Australia","Victoria","Port Phillip","Mornington Peninsula",
"Oceania","Australia","Victoria","Port Phillip","Sunbury",
"Oceania","Australia","Victoria","Port Phillip","Yarra Valley",
"Oceania","Australia","Victoria","Western Victoria",,
"Oceania","Australia","Victoria","Western Victoria","Grampians",
"Oceania","Australia","Victoria","Western Victoria","Henty",
"Oceania","Australia","Victoria","Western Victoria","Pyrenees",
"Oceania","Australia","Western Australia",,,
"Oceania","Australia","Western Australia","Greater Perth",,
"Oceania","Australia","Western Australia","Greater Perth","Peel",
"Oceania","Australia","Western Australia","Greater Perth","Perth Hills",
"Oceania","Australia","Western Australia","Greater Perth","Swan Valley",
"Oceania","Australia","Western Australia","South Western Australia",,
"Oceania","Australia","Western Australia","South Western Australia","Blackwood Valley",
"Oceania","Australia","Western Australia","South Western Australia","Geographe",
"Oceania","Australia","Western Australia","South Western Australia","Great Southern",
"Oceania","Australia","Western Australia","South Western Australia","Great Southern","Albany"
"Oceania","Australia","Western Australia","South Western Australia","Great Southern","Denmark"
"Oceania","Australia","Western Australia","South Western Australia","Great Southern","Frankland River"
"Oceania","Australia","Western Australia","South Western Australia","Great Southern","Mount Barker"
"Oceania","Australia","Western Australia","South Western Australia","Great Southern","Porongurup"
"Oceania","Australia","Western Australia","South Western Australia","Manjimup",
"Oceania","Australia","Western Australia","South Western Australia","Margaret River",
"Oceania","Australia","Western Australia","South Western Australia","Pemberton",
"Oceania","Australia","New Zealand",,,
"Oceania","Australia","New Zealand","Auckland Region",,
"Oceania","Australia","New Zealand","Auckland Region","Henderson",
"Oceania","Australia","New Zealand","Auckland Region","Kumeu",
"Oceania","Australia","New Zealand","Auckland Region","Matakana",
"Oceania","Australia","New Zealand","Auckland Region","Waiheke Island",
"Oceania","Australia","New Zealand","Bay of Plenty",,
"Oceania","Australia","New Zealand","Canterbury",,
"Oceania","Australia","New Zealand","Canterbury","Waipara",
"Oceania","Australia","New Zealand","Central Otago",,
"Oceania","Australia","New Zealand","Central Otago","Bendigo",
"Oceania","Australia","New Zealand","Central Otago","Wanaka",
"Oceania","Australia","New Zealand","Hawke's Bay region",,
"Oceania","Australia","New Zealand","Hawke's Bay region","Gimblett Gravells",
"Oceania","Australia","New Zealand","Gisborne",,
"Oceania","Australia","New Zealand","Marlborough",,
"Oceania","Australia","New Zealand","Marlborough","Blenheim",
"Oceania","Australia","New Zealand","Marlborough","Cloudy Bay",
"Oceania","Australia","New Zealand","Marlborough","Renwick",
"Oceania","Australia","New Zealand","Marlborough","Seddon",
"Oceania","Australia","New Zealand","Nelson",,
"Oceania","Australia","New Zealand","Northland Region",,
"Oceania","Australia","New Zealand","Waikato",,
"Oceania","Australia","New Zealand","Waikato","Te Awamutu",
"Oceania","Australia","New Zealand","Waikato","Te Kauwhata",
"Oceania","Australia","New Zealand","Wairarapa",,
"Oceania","Australia","New Zealand","Wairarapa","Martinborough",
